#VRML V2.0 utf8


Group {
  children 
    Group {
      children 
        Group {
          children 
            Transform {
              translation 0 0 0
              rotation 0 0 1  0
              scale 1 1 1
              scaleOrientation 0 0 1  0
              children [ 
                Group {
                  children 
                    Transform {
                      translation 0 0.001 0
                      rotation 0 0 1  0
                      scale 1 1 1
                      scaleOrientation 0 0 1  0
                      children 
                        Transform {
                          translation 0.016776869 -0.01427975 0.01182394
                          rotation 0.020692075 0.9997859 1.636236e-008  3.1415942
                          scale 0.99999982 0.99999982 1
                          scaleOrientation 0 0 1  0
                          children 
                            Shape {
                              appearance 
                              Appearance {
                                material 
                                Material {

                                }

                              }
                              geometry 
                              IndexedFaceSet {
                                coord 
                                Coordinate {
                                  point [ 0.049999949 0.074999921 -0.01749998,
                                      0.049999949 -0.074999921 -0.01749998,
                                      -0.049999949 -0.074999921 -0.01749998,
                                      -0.049999949 0.074999981 -0.01749998,
                                      0.049999949 0.074999921 0.01749998,
                                      0.049999889 -0.074999981 0.01749998,
                                      -0.049999949 -0.074999921 0.01749998,
                                      -0.049999949 0.074999921 0.01749998 ]

                                }
                                normal 
                                Normal {
                                  vector [  ]

                                }
                                coordIndex [ 0, 1, 3, -1, 4, 7, 5, -1,
                                    0, 4, 5, -1, 1, 5, 2, -1,
                                    2, 6, 3, -1, 4, 0, 7, -1,
                                    1, 2, 3, -1, 7, 6, 5, -1,
                                    1, 0, 5, -1, 5, 6, 2, -1,
                                    6, 7, 3, -1, 0, 3, 7 ]
                                ccw TRUE
                                solid FALSE
                                convex TRUE
                                creaseAngle 0

                              }

                            }

                        }

                    }

                },
                  
                Group {
                  children 
                    Transform {
                      translation 0.056225501 0.067891799 0.0114782
                      rotation 0 0 1  0
                      scale 1 1 1
                      scaleOrientation 0 0 1  0

                    }

                },
                  
                Group {
                  children 
                    Transform {
                      translation -0.0202446 0.073167697 0.01211868
                      rotation 0 0 1  0
                      scale 1 1 1
                      scaleOrientation 0 0 1  0

                    }

                },
                  
                Group {
                  children 
                    Transform {
                      translation 0.019418599 0.0104454 0.034097299
                      rotation 0 0 1  0
                      scale 1 1 1
                      scaleOrientation 0 0 1  0

                    }

                } ]

            }

        }

    }

}
