#VRML V2.0 utf8


Group {
  children 
    Group {
      children 
        Group {
          children 
            Transform {
              translation 0 0.001 0
              rotation 0 0 1  0
              scale 1 1 1
              scaleOrientation 0 0 1  0
              children [ 
                Shape {
                  appearance 
                  Appearance {
                    material 
                    Material {
                      diffuseColor 0.63999999 0.63999999 0.63999999

                    }

                  }
                  geometry 
                  IndexedFaceSet {
                    coord 
                    Coordinate {
                      point [ 0.050000008 0.032499962 -0.00099998701,
                          0.050000008 -0.032499962 -0.00099998701,
                          -0.050000072 -0.03249979 -0.00099998701,
                          -0.049999591 0.032500379 -0.00099998701,
                          0.050000481 0.032499488 0.00099998701,
                          0.049999349 -0.032500561 0.00099998701,
                          -0.050000299 -0.032499611 0.00099998701,
                          -0.049999889 0.032500021 0.00099998701 ]

                    }
                    normal 
                    Normal {
                      vector [  ]

                    }
                    coordIndex [ 0, 1, 2, -1, 4, 7, 6, -1,
                        0, 4, 5, -1, 1, 5, 6, -1,
                        2, 6, 3, -1, 4, 0, 3, -1,
                        3, 0, 2, -1, 5, 4, 6, -1,
                        1, 0, 5, -1, 2, 1, 6, -1,
                        6, 7, 3, -1, 7, 4, 3 ]
                    ccw TRUE
                    solid FALSE
                    convex TRUE
                    creaseAngle 0

                  }

                },
                  
                Group {

                },
                  
                Group {

                },
                  
                Group {

                } ]

            }

        }

    }

}
