<COLLADA xmlns="http://www.collada.org/2008/03/COLLADASchema" version="1.5.0">
  <asset>
    <contributor>
      <author>Blender User</author>
      <authoring_tool>Blender 2.69.0 r60991</authoring_tool>
    </contributor>
    <created>2017-08-28T18:03:19</created>
    <modified>2017-08-28T18:03:19</modified>
    <unit meter="1" name="meter" />
    <up_axis>Z_UP</up_axis>
  </asset>
  <library_lights>
    <light id="Hemi-light" name="Hemi.002">
      <technique_common>
        <ambient>
          <color>1 1 1</color>
        </ambient>
      </technique_common>
      <extra>
        <technique profile="blender">
          <adapt_thresh>0.000999987</adapt_thresh>
          <area_shape>0</area_shape>
          <area_size>0.1</area_size>
          <area_sizey>0.1</area_sizey>
          <area_sizez>0.1</area_sizez>
          <atm_distance_factor>1</atm_distance_factor>
          <atm_extinction_factor>1</atm_extinction_factor>
          <atm_turbidity>2</atm_turbidity>
          <att1>0</att1>
          <att2>1</att2>
          <backscattered_light>1</backscattered_light>
          <bias>1</bias>
          <blue>1</blue>
          <buffers>1</buffers>
          <bufflag>0</bufflag>
          <bufsize>512</bufsize>
          <buftype>2</buftype>
          <clipend>40</clipend>
          <clipsta>0.5</clipsta>
          <compressthresh>0.04999995</compressthresh>
          <dist sid="blender_dist">25</dist>
          <energy sid="blender_energy">1</energy>
          <falloff_type>2</falloff_type>
          <filtertype>0</filtertype>
          <flag>0</flag>
          <gamma sid="blender_gamma">1</gamma>
          <green>1</green>
          <halo_intensity sid="blnder_halo_intensity">1</halo_intensity>
          <horizon_brightness>1</horizon_brightness>
          <mode>1</mode>
          <ray_samp>1</ray_samp>
          <ray_samp_method>1</ray_samp_method>
          <ray_samp_type>0</ray_samp_type>
          <ray_sampy>1</ray_sampy>
          <ray_sampz>1</ray_sampz>
          <red>1</red>
          <samp>3</samp>
          <shadhalostep>0</shadhalostep>
          <shadow_b sid="blender_shadow_b">0</shadow_b>
          <shadow_g sid="blender_shadow_g">0</shadow_g>
          <shadow_r sid="blender_shadow_r">0</shadow_r>
          <shadspotsize>45</shadspotsize>
          <sky_colorspace>2</sky_colorspace>
          <sky_exposure>1</sky_exposure>
          <skyblendfac>1</skyblendfac>
          <skyblendtype>1</skyblendtype>
          <soft>3</soft>
          <spotblend>0.15</spotblend>
          <spotsize>45</spotsize>
          <spread>1</spread>
          <sun_brightness>1</sun_brightness>
          <sun_effect_type>0</sun_effect_type>
          <sun_intensity>1</sun_intensity>
          <sun_size>1</sun_size>
          <type>3</type>
        </technique>
      </extra>
    </light>
  </library_lights>
  <library_images />
  <library_effects>
    <effect id="na_hd-effect">
      <profile_COMMON>
        <technique sid="common">
          <phong>
            <emission>
              <color sid="emission">0 0 0 1</color>
            </emission>
            <ambient>
              <color sid="ambient">0 0 0 1</color>
            </ambient>
            <diffuse>
              <color sid="diffuse">0.8 0.8 0.8 1</color>
            </diffuse>
            <specular>
              <color sid="specular">0.5 0.5 0.5 1</color>
            </specular>
            <shininess>
              <float sid="shininess">50</float>
            </shininess>
            <index_of_refraction>
              <float sid="index_of_refraction">1</float>
            </index_of_refraction>
          </phong>
        </technique>
        <extra>
          <technique profile="GOOGLEEARTH">
            <double_sided>1</double_sided>
          </technique>
        </extra>
      </profile_COMMON>
      <extra><technique profile="MAX3D"><double_sided>1</double_sided></technique></extra>
    </effect>
  </library_effects>
  <library_materials>
    <material id="na_hd-material" name="na_hd">
      <instance_effect url="#na_hd-effect" />
    </material>
  </library_materials>
  <library_geometries>
    <geometry id="Cube-mesh" name="Cube">
      <mesh>
        <source id="Cube-mesh-positions">
          <float_array count="24" id="Cube-mesh-positions-array">0.04999995 0.07499992 -0.01749998 0.04999995 -0.07499992 -0.01749998 -0.04999995 -0.07499992 -0.01749998 -0.04999995 0.07499998 -0.01749998 0.04999995 0.07499992 0.01749998 0.04999989 -0.07499998 0.01749998 -0.04999995 -0.07499992 0.01749998 -0.04999995 0.07499992 0.01749998</float_array>
          <technique_common>
            <accessor count="8" source="#Cube-mesh-positions-array" stride="3">
              <param name="X" type="float" />
              <param name="Y" type="float" />
              <param name="Z" type="float" />
            </accessor>
          </technique_common>
        </source>
        <source id="Cube-mesh-normals">
          <float_array count="36" id="Cube-mesh-normals-array">0 0 -1 0 0 1 1 -3.72529e-7 -6.38621e-7 -1.49012e-7 -1 -1.27724e-6 -1 1.73847e-7 -3.19311e-7 3.72529e-7 1 8.51495e-7 0 0 -1 0 0 1 1 0 9.57932e-7 -7.45058e-7 -1 4.25747e-7 -1 1.49012e-7 -4.25747e-7 3.72529e-7 1 8.51495e-7</float_array>
          <technique_common>
            <accessor count="12" source="#Cube-mesh-normals-array" stride="3">
              <param name="X" type="float" />
              <param name="Y" type="float" />
              <param name="Z" type="float" />
            </accessor>
          </technique_common>
        </source>
        <source id="Cube-mesh-map-0">
          <float_array count="72" id="Cube-mesh-map-0-array">0.01171875 0.9882813 0.7441406 0.9882813 0.01171875 0.578125 0.005859375 0.4238281 0.009765625 0.005859375 0.7578125 0.4296875 0.9804688 0.9746094 0.8828125 0.9746094 0.890625 0.02148437 0.3789063 0.4433594 0.3769531 0.5625 0.0078125 0.4414063 0.7714844 0.015625 0.8769531 0.01757812 0.7695313 0.9746094 0.3964844 0.5585938 0.3964844 0.4472656 0.7460938 0.5605469 0.7441406 0.9882813 0.7441406 0.5742188 0.01171875 0.578125 0.009765625 0.005859375 0.7578125 0.005859375 0.7578125 0.4296875 0.9804688 0.01953125 0.9804688 0.9746094 0.890625 0.02148437 0.3769531 0.5625 0.0078125 0.5605469 0.0078125 0.4414063 0.8769531 0.01757812 0.8730469 0.9765625 0.7695313 0.9746094 0.3964844 0.4472656 0.7480469 0.4472656 0.7460938 0.5605469</float_array>
          <technique_common>
            <accessor count="36" source="#Cube-mesh-map-0-array" stride="2">
              <param name="S" type="float" />
              <param name="T" type="float" />
            </accessor>
          </technique_common>
        </source>
        <source id="Cube-mesh-colors">
          <float_array count="108" id="Cube-mesh-colors-array">1 1 1 1 1 1 1 1 1 1 1 1 1 1 1 1 1 1 1 1 1 1 1 1 1 1 1 1 1 1 1 1 1 1 1 1 1 1 1 1 1 1 1 1 1 1 1 1 1 1 1 1 1 1 1 1 1 1 1 1 1 1 1 1 1 1 1 1 1 1 1 1 1 1 1 1 1 1 1 1 1 1 1 1 1 1 1 1 1 1 1 1 1 1 1 1 1 1 1 1 1 1 1 1 1 1 1 1</float_array>
          <technique_common>
            <accessor count="36" source="#Cube-mesh-colors-array" stride="3">
              <param name="R" type="float" />
              <param name="G" type="float" />
              <param name="B" type="float" />
            </accessor>
          </technique_common>
        </source>
        <vertices id="Cube-mesh-vertices">
          <input semantic="POSITION" source="#Cube-mesh-positions" />
        </vertices>
        <polylist count="12" material="na_hd-material">
          <input offset="0" semantic="VERTEX" source="#Cube-mesh-vertices" />
          <input offset="1" semantic="NORMAL" source="#Cube-mesh-normals" />
          <input offset="2" semantic="TEXCOORD" set="0" source="#Cube-mesh-map-0" />
          <input offset="3" semantic="COLOR" source="#Cube-mesh-colors" />
          <vcount>3 3 3 3 3 3 3 3 3 3 3 3 </vcount>
          <p>0 0 0 0 1 0 1 1 3 0 2 2 4 1 3 3 7 1 4 4 5 1 5 5 0 2 6 6 4 2 7 7 5 2 8 8 1 3 9 9 5 3 10 10 2 3 11 11 2 4 12 12 6 4 13 13 3 4 14 14 4 5 15 15 0 5 16 16 7 5 17 17 1 6 18 18 2 6 19 19 3 6 20 20 7 7 21 21 6 7 22 22 5 7 23 23 1 8 24 24 0 8 25 25 5 8 26 26 5 9 27 27 6 9 28 28 2 9 29 29 6 10 30 30 7 10 31 31 3 10 32 32 0 11 33 33 3 11 34 34 7 11 35 35</p>
        </polylist>
      </mesh>
      <extra><technique profile="MAYA"><double_sided>1</double_sided></technique></extra>
    </geometry>
  </library_geometries>
  <library_controllers />
  <library_visual_scenes>
    <visual_scene id="Scene" name="Scene">
      <node id="Hemi" name="Hemi" type="NODE">
        <matrix sid="transform">0.8141321 0.564495 -0.1361406 2.776347 -0.5800939 0.7801145 -0.2343339 -3.314449 -0.02607509 0.2697531 0.9625764 -0.1556184 0 0 0 1</matrix>
        <instance_light url="#Hemi-light" />
      </node>
      <node id="Cube" name="Cube" type="NODE">
        <matrix sid="transform">-0.9991437 0.04137528 -1.51663e-6 0.01677687 0.04137528 0.9991437 6.2805e-8 -0.01427975 1.51793e-6 0 -1 0.01182394 0 0 0 1</matrix>
        <instance_geometry url="#Cube-mesh">
          <bind_material>
            <technique_common>
              <instance_material symbol="na_hd-material" target="#na_hd-material" />
            </technique_common>
          </bind_material>
        </instance_geometry>
      </node>
      <node id="hdd_pcb_side" name="hdd_pcb_side" type="NODE">
        <matrix sid="transform">1 0 0 0 0 1 0 0 0 0 1 0 0 0 0 1</matrix>
        <node id="hdd_pcb_side" name="hdd_pcb_side" sid="hdd_pcb_side" type="JOINT">
          <matrix sid="transform">1 0 0 0 0 1 0 0 0 0 1 0 0 0 0 1</matrix>
          <node id="MARKER_hdd_pcb_side_1" name="MARKER_hdd_pcb_side_1" type="NODE">
            <matrix sid="transform">1 0 0 0.0562255 0 1 0 0.0678918 0 0 1 0.0114782 0 0 0 1</matrix>
          </node>
          <node id="MARKER_hdd_pcb_side_2" name="MARKER_hdd_pcb_side_2" type="NODE">
            <matrix sid="transform">1 0 0 -0.0202446 0 1 0 0.0731677 0 0 1 0.01211868 0 0 0 1</matrix>
          </node>
          <node id="MARKER_hdd_pcb_side_3" name="MARKER_hdd_pcb_side_3" type="NODE">
            <matrix sid="transform">1 0 0 0.0194186 0 1 0 0.0104454 0 0 1 0.0340973 0 0 0 1</matrix>
          </node>
        </node>
      </node>
    </visual_scene>
  </library_visual_scenes>
  <library_kinematics_scenes><kinematics_scene id="hdd_pcb_side_kinematics_scene"><instance_articulated_system sid="inst_hdd_pcb_side_motion" url="#hdd_pcb_side_motion"><bind symbol="hdd_pcb_side_kinematics_scene@hdd_pcb_side_motion@hdd_pcb_side_kinematics@inst_hdd_pcb_side_kinematics_model"><param ref="hdd_pcb_side_motion/hdd_pcb_side_motion@hdd_pcb_side_kinematics@inst_hdd_pcb_side_kinematics_model" /></bind><bind symbol="hdd_pcb_side_kinematics_scene@hdd_pcb_side_motion@hdd_pcb_side_kinematics@inst_hdd_pcb_side_kinematics_model@inst_hdd_pcb_side_joint@axis0"><param ref="hdd_pcb_side_motion/hdd_pcb_side_motion@hdd_pcb_side_kinematics@inst_hdd_pcb_side_kinematics_model@inst_hdd_pcb_side_joint@axis0" /></bind><bind symbol="hdd_pcb_side_kinematics_scene@hdd_pcb_side_motion@hdd_pcb_side_kinematics@inst_hdd_pcb_side_kinematics_model@inst_hdd_pcb_side_joint_value"><param ref="hdd_pcb_side_motion/hdd_pcb_side_motion@hdd_pcb_side_kinematics@inst_hdd_pcb_side_kinematics_model@inst_hdd_pcb_side_joint_value" /></bind></instance_articulated_system></kinematics_scene></library_kinematics_scenes><library_kinematics_models><kinematics_model id="hdd_pcb_side_kinematics_model"><technique_common><instance_joint sid="inst_hdd_pcb_side_joint" url="#hdd_pcb_side_joint" /><link name="hdd_pcb_side_root_link" sid="hdd_pcb_side_root_link"><attachment_full joint="hdd_pcb_side_kinematics_model/inst_hdd_pcb_side_joint"><translate>0.0 0.0 0.0</translate><rotate>0 0 1 0.0</rotate><rotate>0 1 0 -0.0</rotate><rotate>1 0 0 0.0</rotate><link name="hdd_pcb_side_link" sid="hdd_pcb_side_link" /></attachment_full></link></technique_common></kinematics_model></library_kinematics_models><library_articulated_systems><articulated_system id="hdd_pcb_side_kinematics"><kinematics><instance_kinematics_model sid="inst_hdd_pcb_side_kinematics_model" url="#hdd_pcb_side_kinematics_model"><newparam sid="hdd_pcb_side_kinematics@inst_hdd_pcb_side_kinematics_model"><SIDREF>hdd_pcb_side_kinematics/inst_hdd_pcb_side_kinematics_model</SIDREF></newparam><newparam sid="hdd_pcb_side_kinematics@inst_hdd_pcb_side_kinematics_model@inst_hdd_pcb_side_joint@axis0"><SIDREF>hdd_pcb_side_kinematics/inst_hdd_pcb_side_kinematics_model/inst_hdd_pcb_side_joint/axis0</SIDREF></newparam><newparam sid="hdd_pcb_side_kinematics@inst_hdd_pcb_side_kinematics_model@inst_hdd_pcb_side_joint_value"><float>0.0</float></newparam></instance_kinematics_model><technique_common><axis_info axis="hdd_pcb_side_kinematics_model/inst_hdd_pcb_side_joint/axis0" sid="inst_hdd_pcb_side_joint_info"><active><bool>True</bool></active><locked><bool>False</bool></locked><limits><min><float>0.0</float></min><max><float>0.0</float></max></limits></axis_info></technique_common></kinematics></articulated_system><articulated_system id="hdd_pcb_side_motion"><motion><instance_articulated_system sid="inst_hdd_pcb_side_kinematics" url="#hdd_pcb_side_kinematics"><newparam sid="hdd_pcb_side_motion@hdd_pcb_side_kinematics@inst_hdd_pcb_side_kinematics_model"><SIDREF>hdd_pcb_side_kinematics/hdd_pcb_side_kinematics@inst_hdd_pcb_side_kinematics_model</SIDREF></newparam><newparam sid="hdd_pcb_side_motion@hdd_pcb_side_kinematics@inst_hdd_pcb_side_kinematics_model@inst_hdd_pcb_side_joint@axis0"><SIDREF>hdd_pcb_side_kinematics/hdd_pcb_side_kinematics@inst_hdd_pcb_side_kinematics_model@inst_hdd_pcb_side_joint@axis0</SIDREF></newparam><newparam sid="hdd_pcb_side_motion@hdd_pcb_side_kinematics@inst_hdd_pcb_side_kinematics_model@inst_hdd_pcb_side_joint_value"><SIDREF>hdd_pcb_side_kinematics/hdd_pcb_side_kinematics@inst_hdd_pcb_side_kinematics_model@inst_hdd_pcb_side_joint_value</SIDREF></newparam></instance_articulated_system><technique_common><axis_info axis="hdd_pcb_side_kinematics/inst_hdd_pcb_side_joint_info"><speed><float>0.0</float></speed><acceleration><float>0.0</float></acceleration><deceleration><float>0.0</float></deceleration><jerk><float>0.0</float></jerk></axis_info></technique_common></motion><extra type="manipulator"><technique profile="OpenRAVE"><frame_origin link="hdd_pcb_side_kinematics_model/hdd_pcb_side_root_link" /><frame_origin link="hdd_pcb_side_kinematics_model/hdd_pcb_side_root_link" /><frame_tip link="hdd_pcb_side_kinematics_model/hdd_pcb_side_link" /></technique></extra><extra name="MARKER_hdd_pcb_side_1" type="attach_sensor"><technique profile="OpenRAVE"><frame_origin link="hdd_pcb_side_kinematics_model/hdd_pcb_side_link"><translate>0.056225501000881195 0.06789179891347885 0.011478199623525143</translate></frame_origin><instance_sensor url="sensors.dae#Vicon" /></technique></extra><extra name="MARKER_hdd_pcb_side_2" type="attach_sensor"><technique profile="OpenRAVE"><frame_origin link="hdd_pcb_side_kinematics_model/hdd_pcb_side_link"><translate>-0.020244600251317024 0.07316769659519196 0.012118680402636528</translate></frame_origin><instance_sensor url="sensors.dae#Vicon" /></technique></extra><extra name="MARKER_hdd_pcb_side_3" type="attach_sensor"><technique profile="OpenRAVE"><frame_origin link="hdd_pcb_side_kinematics_model/hdd_pcb_side_link"><translate>0.01941859908401966 0.010445400141179562 0.034097298979759216</translate></frame_origin><instance_sensor url="sensors.dae#Vicon" /></technique></extra></articulated_system></library_articulated_systems><library_joints><joint id="hdd_pcb_side_joint" name="hdd_pcb_side_joint"><revolute sid="axis0"><axis>0 0 1</axis></revolute></joint></library_joints><library_physics_models><physics_model id="hdd_pcb_side_physics_model" /></library_physics_models><library_physics_scenes><physics_scene id="hdd_pcb_side_physics_scene"><instance_physics_model sid="inst_hdd_pcb_side_physics_model" url="#hdd_pcb_side_physics_model" /><technique_common /></physics_scene></library_physics_scenes><scene>
    <instance_visual_scene url="#Scene" />
  <instance_physics_scene url="#hdd_pcb_side_physics_scene" /><instance_kinematics_scene sid="inst_hdd_pcb_side_kinematics_scene" url="#hdd_pcb_side_kinematics_scene"><bind_kinematics_model node="hdd_pcb_side"><param>hdd_pcb_side_kinematics_scene@hdd_pcb_side_motion@hdd_pcb_side_kinematics@inst_hdd_pcb_side_kinematics_model</param></bind_kinematics_model><bind_joint_axis target="hdd_pcb_side/transform"><axis><param>hdd_pcb_side_kinematics_scene@hdd_pcb_side_motion@hdd_pcb_side_kinematics@inst_hdd_pcb_side_kinematics_model@inst_hdd_pcb_side_joint@axis0</param></axis><value><param>hdd_pcb_side_kinematics_scene@hdd_pcb_side_motion@hdd_pcb_side_kinematics@inst_hdd_pcb_side_kinematics_model@inst_hdd_pcb_side_joint_value</param></value></bind_joint_axis></instance_kinematics_scene></scene>
</COLLADA>