#VRML V2.0 utf8


Group {
  children 
    Group {
      children [ 
        Group {
          children 
            Transform {
              translation -0 0 -0
              rotation 0 0 1  0
              scale 1 1 1
              scaleOrientation 0 0 1  0
              children 
                Transform {
                  translation -0.0073164729 -0.093318313 -0.004904435
                  rotation 0.037794482 0.99928552 -4.6533582e-08  3.1415925
                  scale 0.014543097 0.097499967 0.0057311668
                  scaleOrientation 0 0 1  0
                  children 
                    Shape {
                      appearance 
                      Appearance {
                        material 
                        Material {
                          diffuseColor 0.63999999 0.63999999 0.63999999

                        }

                      }
                      geometry 
                      IndexedFaceSet {
                        coord 
                        Coordinate {
                          point [ 0.05801475 1 -1,
                              0.05801475 -0.92483318 -1,
                              -0.19339851 -0.92483312 -1,
                              -0.193398 1 -1,
                              0.05801522 0.99999952 1,
                              0.058014091 -0.81176847 1,
                              -0.1933987 -0.81176758 1,
                              -0.19339821 1 1,
                              -0.0543161 1 -3.536598,
                              -0.054316338 -0.99999988 -3.536598 ]

                        }
                        normal 
                        Normal {
                          vector [  ]

                        }
                        coordIndex [ 4, 7, 6, -1, 0, 4, 5, -1,
                            5, 6, 2, -1, 6, 7, 3, -1,
                            0, 3, 7, -1, 2, 3, 8, -1,
                            3, 0, 8, -1, 1, 9, 8, -1,
                            1, 2, 9, -1, 5, 4, 6, -1,
                            1, 0, 5, -1, 1, 5, 2, -1,
                            2, 6, 3, -1, 4, 0, 7, -1,
                            9, 2, 8, -1, 0, 1, 8 ]
                        ccw TRUE
                        solid FALSE
                        convex TRUE
                        creaseAngle 0

                      }

                    }

                }

            }

        },
          
        Group {
          children 
            Transform {
              translation 0.01244531 0.158783 0.00052696798
              rotation -4.4409011e-16 3.2166831e-16 1.0000001  1.8878528
              scale 1 1 1
              scaleOrientation 0 0 1  0

            }

        },
          
        Group {
          children 
            Transform {
              translation -0.021564409 -0.1747165 -0.006692607
              rotation -4.4409011e-16 3.2166831e-16 1.0000001  1.8878528
              scale 1 1 1
              scaleOrientation 0 0 1  0

            }

        },
          
        Group {
          children 
            Transform {
              translation -0.0023799241 -0.1270631 -0.01145951
              rotation -4.4409011e-16 3.2166831e-16 1.0000001  1.8878528
              scale 1 1 1
              scaleOrientation 0 0 1  0

            }

        },
          
        Group {
          children 
            Transform {
              translation -0.0067242719 0.001424416 -0.0094451392
              rotation -4.4409011e-16 3.2166831e-16 1.0000001  1.8878528
              scale 1 1 1
              scaleOrientation 0 0 1  0

            }

        },
          
        Group {
          children 
            Transform {
              translation -0 0 -0
              rotation 0 0 1  0
              scale 1 1 1
              scaleOrientation 0 0 1  0
              children 
                Transform {
                  translation -0.0073164729 -0.093318313 -0.004904435
                  rotation 0.037794482 0.99928552 -4.6533582e-08  3.1415925
                  scale 0.014543097 0.097499967 0.0057311668
                  scaleOrientation 0 0 1  0
                  children 
                    Shape {
                      appearance 
                      Appearance {
                        material 
                        Material {
                          diffuseColor 0.74499291 0.80000001 0.1540328

                        }

                      }
                      geometry 
                      IndexedFaceSet {
                        coord 
                        Coordinate {
                          point [ -0.3524515 1.001188 -3.497107,
                              -0.3524515 1.001188 1.0394911,
                              -0.39673471 2.5396881 -3.497107,
                              -0.39673471 2.5396881 1.0394911,
                              0.26118991 1.000963 -3.497107,
                              0.26118991 1.000963 1.0394911,
                              0.2169067 2.539463 -3.497107,
                              0.2169067 2.539463 1.0394911 ]

                        }
                        normal 
                        Normal {
                          vector [  ]

                        }
                        coordIndex [ 3, 2, 0, -1, 7, 6, 2, -1,
                            5, 4, 6, -1, 1, 0, 4, -1,
                            0, 2, 6, -1, 7, 3, 1, -1,
                            1, 3, 0, -1, 3, 7, 2, -1,
                            7, 5, 6, -1, 5, 1, 4, -1,
                            4, 0, 6, -1, 5, 7, 1 ]
                        ccw TRUE
                        solid FALSE
                        convex TRUE
                        creaseAngle 0

                      }

                    }

                }

            }

        } ]

    }

}
